[
  {
    "province": "Western",
    "district": "Colombo",
    "electorate": "Colombo",
    "asanaya": "Colombo1",
    "kottasaya": "Colombo1",
    "dsDivision": "Colombo",
    "gsDivision": "Mattakkuliya",
    "location": {
      "lat": 6.971672,
      "lon": 79.878683
    }
  },
  {
    "province": "Western",
    "district": "Colombo",
    "electorate": "Colombo",
    "asanaya": "Colombo2",
    "kottasaya": "Colombo2",
    "dsDivision": "Colombo",
    "gsDivision": "Madampitiya",
    "location": {
      "lat": 6.962897,
      "lon": 79.87536
    }
  },
  {
    "province": "Western",
    "district": "Colombo",
    "electorate": "Colombo",
    "asanaya": "Colombo3",
    "kottasaya": "Colombo3",
    "dsDivision": "Colombo",
    "gsDivision": "Grandpass North",
    "location": {
      "lat": 6.949007,
      "lon": 79.871684
    }
  },
  {
    "province": "Western",
    "district": "Gampaha",
    "electorate": "Gampaha",
    "asanaya": "Gampaha1",
    "kottasaya": "Gampaha1",
    "dsDivision": "Divulapitiya",
    "gsDivision": "Bolagala",
    "location": {
      "lat": 7.2709,
      "lon": 79.933
    }
  },
  {
    "province": "Western",
    "district": "Gampaha",
    "electorate": "Gampaha",
    "asanaya": "Gampaha2",
    "kottasaya": "Gampaha2",
    "dsDivision": "Divulapitiya",
    "gsDivision": "Balawala",
    "location": {
      "lat": 30.321434,
      "lon": 78.031928
    }
  },
  {
    "province": "Western",
    "district": "Kalutara",
    "electorate": "Kalutara",
    "asanaya": "Kalutara1",
    "kottasaya": "Kalutara1",
    "dsDivision": "Panadura",
    "gsDivision": "Horethuduwa",
    "location": {
      "lat": 6.748535,
      "lon": 79.991253
    }
  },
  {
    "province": "Western",
    "district": "Kalutara",
    "electorate": "Kalutara",
    "asanaya": "Kalutara2",
    "kottasaya": "Kalutara2",
    "dsDivision": "Panadura",
    "gsDivision": "Gorakana South",
    "location": {
      "lat": 6.759503,
      "lon": 79.898078
    }
  },
  {
    "province": "Western",
    "district": "Kalutara",
    "electorate": "Kalutara",
    "asanaya": "Kalutara3",
    "kottasaya": "Kalutara3",
    "dsDivision": "Panadura",
    "gsDivision": "Sarikkamulla",
    "location": {
      "lat": 6.752718,
      "lon": 79.899806
    }
  },
  {
    "province": "Western",
    "district": "Kalutara",
    "electorate": "Kalutara",
    "asanaya": "Kalutara4",
    "kottasaya": "Kalutara4",
    "dsDivision": "Panadura",
    "gsDivision": "Gorakapola",
    "location": {
      "lat": 6.7396,
      "lon": 79.9033
    }
  },
  {
    "province": "Central",
    "district": "Kandy",
    "electorate": "Kandy",
    "asanaya": "Kandy1",
    "kottasaya": "Kandy1",
    "dsDivision": "Thumpane",
    "gsDivision": "Kobbegala",
    "location": {
      "lat": 7.393328,
      "lon": 80.485655
    }
  },
  {
    "province": "Central",
    "district": "Kandy",
    "electorate": "Kandy",
    "asanaya": "Kandy2",
    "kottasaya": "Kandy2",
    "dsDivision": "Thumpane",
    "gsDivision": "Akkarawatta",
    "location": {
      "lat": 6.952328,
      "lon": 80.512168
    }
  },
  {
    "province": "Central",
    "district": "Kandy",
    "electorate": "Kandy",
    "asanaya": "Kandy3",
    "kottasaya": "Kandy3",
    "dsDivision": "Thumpane",
    "gsDivision": "Alawattegama ",
    "location": {
      "lat": 7.1345,
      "lon": 80.7906
    }
  },
  {
    "province": "Central",
    "district": "Kandy",
    "electorate": "Kandy",
    "asanaya": "Kandy4",
    "kottasaya": "Kandy4",
    "dsDivision": "Hatharaliyadda",
    "gsDivision": "Alakolamaditta ",
    "location": {
      "lat": 7.3018,
      "lon": 80.6926
    }
  },
  {
    "province": "Central",
    "district": "Kandy",
    "electorate": "Kandy",
    "asanaya": "Kandy4",
    "kottasaya": "Kandy5",
    "dsDivision": "Hatharaliyadda",
    "gsDivision": "Galdola",
    "location": {
      "lat": 6.279206,
      "lon": 80.6926
    }
  },
  {
    "province": "Central",
    "district": "Kandy",
    "electorate": "Kandy",
    "asanaya": "Kandy4",
    "kottasaya": "Kandy6",
    "dsDivision": "Hatharaliyadda",
    "gsDivision": "Kalotuwawa",
    "location": {
      "lat": 7.3492,
      "lon": 80.4282
    }
  },
  {
    "province": "Southern",
    "district": "Galle",
    "electorate": "Galle",
    "asanaya": "Galle1",
    "kottasaya": "Galle1",
    "dsDivision": "Balapitiya",
    "gsDivision": "Nanathota Palatha",
    "location": {
      "lat": 8.30124,
      "lon": 80.42913
    }
  },
  {
    "province": "Southern",
    "district": "Galle",
    "electorate": "Galle",
    "asanaya": "Galle2",
    "kottasaya": "Galle2",
    "dsDivision": "Thawalama",
    "gsDivision": "Ela Ihala North",
    "location": {
      "lat": 7.090448,
      "lon": 79.901034
    }
  },
  {
    "province": "Southern",
    "district": "Galle",
    "electorate": "Galle",
    "asanaya": "Galle3",
    "kottasaya": "Galle3",
    "dsDivision": "Thawalama",
    "gsDivision": "Kudugalpola",
    "location": {
      "lat": 6.309346,
      "lon": 80.316627
    }
  },
  {
    "province": "Northern",
    "district": "Jaffna",
    "electorate": "Jaffna",
    "asanaya": "Jaffna2",
    "kottasaya": "Jaffna2",
    "dsDivision": "Valikamam South-West (Sandilipay)",
    "gsDivision": "Manipay North",
    "location": {
      "lat": 9.694174,
      "lon": 80.080236
    }
  },
  {
    "province": "Northern",
    "district": "Jaffna",
    "electorate": "Jaffna",
    "asanaya": "Jaffna3",
    "kottasaya": "Jaffna3",
    "dsDivision": "Valikamam South-West (Sandilipay)",
    "gsDivision": "Manipay North",
    "location": {
      "lat": 9.694174,
      "lon": 80.080236
    }
  },
  {
    "province": "Northern",
    "district": "Jaffna",
    "electorate": "Jaffna",
    "asanaya": "Jaffna1",
    "kottasaya": "Jaffna1",
    "dsDivision": "mulative",
    "gsDivision": "mulative",
    "location": {
      "lat": 9.396544,
      "lon": 80.167491
    }
  },
  {
    "province": "Northern",
    "district": "Jaffna",
    "electorate": "Jaffna",
    "asanaya": "Jaffna3",
    "kottasaya": "Jaffna4",
    "dsDivision": "Valikamam South-West (Sandilipay)",
    "gsDivision": "Vadaliyadaippu",
    "location": {
      "lat": 9.765195,
      "lon": 79.968327
    }
  },
  {
    "province": "Northern",
    "district": "Vanni",
    "electorate": "Vanni",
    "asanaya": "Vanni1",
    "kottasaya": "Vanni1",
    "dsDivision": "Mannar Town",
    "gsDivision": "Talaimannar Village South",
    "location": {
      "lat": 9.088161,
      "lon": 79.736004
    }
  },
  {
    "province": "Northern",
    "district": "Vanni",
    "electorate": "Vanni",
    "asanaya": "Vanni2",
    "kottasaya": "Vanni2",
    "dsDivision": "Mannar Town",
    "gsDivision": "Pesalai South",
    "location": {
      "lat": 9.082333,
      "lon": 79.835857
    }
  },
  {
    "province": "Uva",
    "district": "Badulla",
    "electorate": "Badulla",
    "asanaya": "Badulla1",
    "kottasaya": "Badulla1",
    "dsDivision": "Rideemaliyadda",
    "gsDivision": "Welampele",
    "location": {
      "lat": 6.694222210104687,
      "lon": 80.45931217368711
    }
  },
  {
    "province": "Sabaragamuwa",
    "district": "Ratnapura",
    "electorate": "Ratnapura",
    "asanaya": "Ratnapura1",
    "kottasaya": "Ratnapura1",
    "dsDivision": "Karangoda",
    "gsDivision": "Yahala",
    "location": {
      "lat": 6.679798,
      "lon": 80.355604
    }
  },
  {
    "province": "Sabaragamuwa",
    "district": "Kegalle",
    "electorate": "Kegalle",
    "asanaya": "Kegalle1",
    "kottasaya": "Kegalle1",
    "dsDivision": "Mawela",
    "gsDivision": "Ellepola",
    "location": {
      "lat": 7.226050,
      "lon": 80.336561
    }
  },
  {
    "province": "NorthCentral",
    "district": "Anuradhapura",
    "electorate": "Anuradhapura",
    "asanaya": "Anuradhapura1",
    "kottasaya": "Anuradhapura1",
    "dsDivision": "Mihinthale",
    "gsDivision": "Kudawewa",
    "location": {
      "lat": 8.344231,
      "lon": 80.490880
    }
  },
  {
    "province": "NorthCentral",
    "district": "Polonnaruwa",
    "electorate": "Polonnaruwa",
    "asanaya": "Polonnaruwa1",
    "kottasaya": "Polonnaruwa1",
    "dsDivision": "Girithale",
    "gsDivision": "Jayanthipura",
    "location": {
      "lat": 7.966351,
      "lon": 80.973054
    }
  },
  {
    "province": "NorthWestern",
    "district": "Puttalam",
    "electorate": "Puttalam",
    "asanaya": "Puttalam1",
    "kottasaya": "Puttalam1",
    "dsDivision": "Palaviya",
    "gsDivision": "Kalladiya",
    "location": {
      "lat": 7.955399,
      "lon": 79.895221
    }
  },
  {
    "province": "Eastern",
    "district": "Ampara",
    "electorate": "Ampara",
    "asanaya": "Ampara1",
    "kottasaya": "Ampara1",
    "dsDivision": "Higurana",
    "gsDivision": "Eragama",
    "location": {
      "lat": 7.264263,
      "lon": 81.711459
    }
  },
  {
    "province": "Eastern",
    "district": "Batticaloa",
    "electorate": "Batticaloa",
    "asanaya": "Batticaloa1",
    "kottasaya": "Batticaloa1",
    "dsDivision": "Kattankudy",
    "gsDivision": "Paddipali",
    "location": {
      "lat": 7.682582,
      "lon": 81.730586
    }
  },
  {
    "province": "Eastern",
    "district": "Trincomalee",
    "electorate": "Trincomalee",
    "asanaya": "Trincomalee1",
    "kottasaya": "Trincomalee1",
    "dsDivision": "Kantale",
    "gsDivision": "Agbopura",
    "location": {
      "lat": 8.350830,
      "lon": 81.005400
    }
  }
]
